{
  "metadataId": "XMpMcaFt4K/+BzzlbQAIXGVw3R5UntgpvHd273Uo0eo5qoVq4HCRNLN2f8IR+LUxIRaCjleMBce6S0TDsKGHvxjysXgSE7cSgKGw4/8sKU6+hIgGkXy3jzCRJJOAgG5L2NMdOAxb3aO0sq8pqgmaRA\u003d\u003d",
  "basePath": "/template/T411485283291901T/NA_646484230923772",
  "deps": {
    "js": {
      "before": [
        {
          "uri": "/js/dcVisPieChart.controller.js"
        }
      ]
    },
    "css": [
      {
        "uri": "/index.css"
      }
    ]
  }
}