<?xml version="1.0" encoding="UTF-8" standalone="no"?>
<svg width="14px" height="19px" viewBox="0 0 14 19" version="1.1" xmlns="http://www.w3.org/2000/svg" xmlns:xlink="http://www.w3.org/1999/xlink" xmlns:sketch="http://www.bohemiancoding.com/sketch/ns">
    <!-- Generator: Sketch 3.3.3 (12072) - http://www.bohemiancoding.com/sketch -->
    <title>Fill 11 Copy</title>
    <desc>Created with Sketch.</desc>
    <defs></defs>
    <g id="Template-Editor---V005" stroke="none" stroke-width="1" fill="none" fill-rule="evenodd" sketch:type="MSPage">
        <g id="Template-Editor---Sample-View-(Tooltips)" sketch:type="MSArtboardGroup" transform="translate(-1133.000000, -22.000000)" fill="#FFFFFF">
            <g id="Group-Copy" sketch:type="MSLayerGroup">
                <path d="M1142.55861,37.7542285 C1141.82423,37.8081099 1141.08732,37.7994504 1140.34692,37.7182435 C1139.63351,37.6397306 1138.89641,37.4705817 1138.25055,37.3337615 C1138.5429,38.3598164 1138.89136,39.2946578 1139.27981,40.1113452 C1140.23064,40.4344408 1141.24884,40.6112871 1142.31013,40.6112871 C1143.61563,40.6112871 1144.85785,40.3455366 1145.98708,39.8681094 C1146.27769,38.9854174 1146.50773,37.9743723 1146.66575,36.8767322 C1145.83334,37.1330535 1145.26959,37.3345313 1144.21704,37.5344696 C1143.66533,37.6389609 1143.11207,37.7140099 1142.55861,37.7542285 Z M1137.1019,36.166653 C1136.86118,35.065934 1136.68181,33.8853551 1136.57407,32.6507024 C1136.40052,30.6451616 1136.43663,28.7339131 1136.649,27.0156753 C1136.1664,27.2923945 1135.71642,27.5939377 1135.30564,27.9203047 C1133.63324,29.2500195 1132.82587,30.8041116 1133.03145,32.2958552 C1133.26421,33.9911935 1134.81877,35.3871053 1137.1019,36.166653 Z M1134.79198,27.2848896 C1135.38892,26.8095791 1136.06371,26.3833392 1136.79731,26.0073243 C1136.96058,25.0563185 1137.18227,24.1780525 1137.45424,23.3909999 C1135.46386,24.5898599 1133.96306,26.5047646 1133.30905,28.7739392 C1133.70468,28.2553312 1134.1999,27.7553893 1134.79198,27.2848896 Z M1144.41699,24.2523317 C1144.69944,24.2523317 1144.97646,24.2600291 1145.25095,24.2736918 C1144.93589,23.5054977 1144.58821,22.8210121 1144.21568,22.239286 C1143.6001,22.1128573 1142.96414,22.047045 1142.31013,22.047045 C1140.97492,22.047045 1139.70475,22.3262659 1138.55436,22.8252457 C1138.21658,23.6140302 1137.93645,24.5427137 1137.72718,25.5758886 C1139.03948,25.0203334 1140.5032,24.6223812 1142.04262,24.4147455 C1142.83621,24.307945 1143.63465,24.2523317 1144.41699,24.2523317 Z M1146.18956,27.2350494 C1145.03974,27.4351801 1143.83402,27.8442935 1142.68033,28.4383354 C1139.02375,30.3180248 1136.89826,33.472393 1137.94344,35.4700441 C1138.23541,36.0279085 1138.76945,36.4522242 1139.48519,36.7133563 C1141.61845,37.4967526 1144.53482,36.6792956 1146.47065,35.6830679 C1146.58771,35.6220665 1146.70341,35.5618348 1146.81795,35.4975621 C1146.93229,34.0947226 1146.93229,32.5856599 1146.79873,31.0390727 C1146.68225,29.7020455 1146.47221,28.4202467 1146.18956,27.2350494 Z M1137.39328,32.5796945 C1137.39425,32.5906632 1137.39503,32.6000924 1137.39678,32.6102914 C1137.53771,32.2848865 1137.71534,31.9550557 1137.9316,31.6227232 C1138.88495,30.160037 1140.46029,28.8149276 1142.36429,27.8358264 C1143.56186,27.2196547 1144.81611,26.7918753 1146.02125,26.577312 C1145.88303,26.0662089 1145.73239,25.5758886 1145.56816,25.1100074 C1145.19233,25.0828743 1144.80932,25.067672 1144.41699,25.067672 C1143.67232,25.067672 1142.91076,25.1186669 1142.15308,25.2212339 C1140.48767,25.447728 1138.92029,25.9014859 1137.55538,26.5438286 C1137.27914,28.3621318 1137.20673,30.4332924 1137.39328,32.5796945 Z M1133.83377,35.273762 C1134.73685,37.1755813 1136.27065,38.7239004 1138.16901,39.6543159 C1137.84987,38.8784244 1137.56742,38.0222882 1137.32728,37.1039961 C1135.90763,36.6912264 1134.71356,36.0638936 1133.83377,35.273762 Z" id="Fill-11-Copy" sketch:type="MSShapeGroup"></path>
            </g>
        </g>
    </g>
</svg>
